<?xml version="1.0" encoding="utf-8"?>
<!-- Generator: Adobe Illustrator 16.0.0, SVG Export Plug-In . SVG Version: 6.00 Build 0)  -->
<!DOCTYPE svg PUBLIC "-//W3C//DTD SVG 1.1//EN" "http://www.w3.org/Graphics/SVG/1.1/DTD/svg11.dtd">
<svg version="1.1" xmlns="http://www.w3.org/2000/svg" xmlns:xlink="http://www.w3.org/1999/xlink" x="0px" y="0px"
	 width="389.213px" height="302.276px" viewBox="0 0 389.213 302.276" enable-background="new 0 0 389.213 302.276"
	 xml:space="preserve">
<g id="bal">
</g>
<g id="wit" display="none">
	
		<ellipse display="inline" fill="#FFFFFF" stroke="#FFFFFF" stroke-width="20" cx="194.397" cy="241.245" rx="190.606" ry="113.031"/>
	<circle display="inline" fill="#FFFFFF" stroke="#FFFFFF" stroke-width="10" cx="197.196" cy="118.24" r="48.189"/>
	<path display="inline" fill="#FFFFFF" stroke="#FFFFFF" stroke-width="16" d="M92.738,74.644
		C9.462,118.975,2.902,198.894,1.839,244.063c2.632-31.112,7.921-96.514,67.164-130.64c24.339-14.021,61.956-14.055,78.57-7.412
		c-0.462,1.757-0.827,3.51-1.099,5.255c-29.037-5.813-59.668-2.752-87.319,26.313c33.934-29.145,68.341-28.057,91.094,3.761
		c5.826,8.146,15.54,20.085,29.333,24.867c13.442,4.663,27.862,4.102,39.041-1.611c13.053-6.676,20.346-14.945,25.973-28.901
		c12.51-31.026-11.9-58.242-26.338-66.028C203.13,61.509,146.522,46.016,92.738,74.644z"/>
	<path display="inline" fill="#FFFFFF" stroke="#FFFFFF" stroke-width="10" d="M213.566,75.025
		c-19.223,13.723-34.328,34.84-41.315,63.962c-3.957-1.065-7.666-2.953-10.479-5.334c-1.432-13.862,1.931-27.29,10.499-40.384
		c7.461-11.397,18.734-21.096,28.848-21.855C207.251,70.953,212.498,73.807,213.566,75.025z M215.48,76.898
		c4.514,3.551,7.59,7.675,10.084,13.351c-18.202,13.585-25.686,31.182-29.933,48.019c-8.727,1.65-14.575,2.243-20.786,0.953
		C180.769,113.044,195.94,88.619,215.48,76.898z M241.602,105.354c-3.926-6.272-7.576-10.168-13.381-15.038
		c-2.361-4.908-5.053-8.779-8.672-13.396C230.725,82.856,238.443,94.666,241.602,105.354z M242.111,127.637
		c-3.543-8.21-11.822-18.247-26.631-25.406c3.588-4.052,6.91-6.698,11.449-9.516c5.752,4.322,13.822,11.947,15.732,19.543
		C243.988,117.538,242.99,123.207,242.111,127.637z M230.629,149.284c-2.682-9.725-14.693-25.86-24.525-32.982
		c1.159-2.822,5.971-10.295,8.174-12.883c17.129,8.196,26.906,22.952,26.213,28.779C239.816,137.828,235.07,144.413,230.629,149.284
		z M216.76,159.613c-2.213-7.23-10.398-15.112-18.574-20.609c1.837-8.409,3.588-14.145,6.859-20.689
		c7.826,4.613,25.686,28.542,23.406,33.273C225.07,154.765,221.154,157.49,216.76,159.613z M158.942,145.582
		c13.314,12.751,30.987,15.991,52.779,9.023c1.73,2.309,2.799,5.521,1.834,6.111C193.618,168.881,171.506,162.359,158.942,145.582z
		 M150.547,119.591c9.063,26.955,33.522,23.468,45.937,21.523c6.219,4.729,10.846,8.231,13.818,11.588
		c-22.978,9.35-48.508,0.412-57.465-18.893c-1.815-3.912-2.799-8.357-3.135-12.774C150.006,120.382,150.169,120.221,150.547,119.591
		z M194.755,70.688c-23.486,11.561-36.746,38.911-35.226,61.063c-3.539-3.762-5.655-8.942-7.105-15.146
		c0.983-16.607,11.793-34.083,25.619-41.402C185.334,71.343,193.031,70.654,194.755,70.688z"/>
	<text transform="matrix(1 0 0 1 -23.1338 301.0444)" display="inline"><tspan x="0" y="0" fill="#FFFFFF" stroke="#FFFFFF" stroke-width="10" font-family="'MoolBoran'" font-size="53">volleybalvereniging</tspan><tspan x="84.03" y="28" fill="#FFFFFF" stroke="#FFFFFF" stroke-width="10" font-family="'MoolBoran'" font-size="53">vlaardingen</tspan></text>
	
		<text transform="matrix(1 0 0 1 35.8354 256.4478)" display="inline" fill="#FFFFFF" stroke="#FFFFFF" stroke-width="10" font-family="'MailRayStuff'" font-size="72">Move</text>
	<g display="inline">
		
			<text transform="matrix(1 0 0 1 213.4111 275.7534)" fill="#FFFFFF" stroke="#FFFFFF" stroke-width="10" font-family="'MailRayStuff'" font-size="140">4</text>
	</g>
	<g display="inline">
		
			<text transform="matrix(1 0 0 1 294.0176 256.4458)" fill="#FFFFFF" stroke="#FFFFFF" stroke-width="10" font-family="'MailRayStuff'" font-size="72">u</text>
	</g>
</g>
<g id="Laag_1">
	<ellipse fill="#F18E00" stroke="#003888" stroke-width="8" cx="194.606" cy="185.245" rx="190.606" ry="113.031"/>
	<circle fill="#FFFFFF" cx="197.382" cy="62.146" r="48.189"/>
	
		<linearGradient id="SVGID_1_" gradientUnits="userSpaceOnUse" x1="562.126" y1="-410.4053" x2="562.126" y2="-247.4832" gradientTransform="matrix(0.4249 0.9052 0.9052 -0.4249 159.0401 -558.9979)">
		<stop  offset="0" style="stop-color:#004D95"/>
		<stop  offset="1" style="stop-color:#7EA2D1"/>
	</linearGradient>
	<path fill="url(#SVGID_1_)" stroke="#003888" stroke-width="4" d="M92.925,18.549C9.648,62.88,3.089,142.8,2.025,187.968
		c2.633-31.112,7.921-96.514,67.165-130.64c24.339-14.02,61.956-14.055,78.57-7.411c-0.461,1.757-0.827,3.509-1.098,5.255
		c-29.037-5.813-59.668-2.752-87.32,26.313c33.935-29.144,68.34-28.056,91.094,3.763c5.826,8.146,15.539,20.084,29.332,24.867
		c13.442,4.662,27.864,4.101,39.043-1.611c13.053-6.676,20.346-14.946,25.973-28.902c12.508-31.025-11.9-58.242-26.338-66.028
		C203.318,5.414,146.708-10.08,92.925,18.549z"/>
	<path fill="#FFFFFF" d="M212.861,19.382c-19.224,13.724-34.329,34.841-41.316,63.963c-3.956-1.066-7.665-2.954-10.478-5.335
		c-1.433-13.86,1.929-27.289,10.499-40.384c7.46-11.397,18.733-21.096,28.848-21.854C206.546,15.31,211.791,18.164,212.861,19.382z
		 M214.773,21.255c4.514,3.551,7.592,7.674,10.086,13.351c-18.204,13.586-25.686,31.182-29.934,48.019
		c-8.726,1.651-14.575,2.246-20.785,0.954C180.063,57.402,195.234,32.977,214.773,21.255z M240.896,49.71
		c-3.926-6.271-7.576-10.168-13.381-15.038c-2.361-4.908-5.055-8.779-8.672-13.397C230.02,27.214,237.738,39.023,240.896,49.71z
		 M241.406,71.994c-3.543-8.209-11.824-18.245-26.631-25.404c3.588-4.052,6.908-6.7,11.447-9.517
		c5.752,4.322,13.824,11.948,15.732,19.544C243.281,61.895,242.283,67.565,241.406,71.994z M229.922,93.641
		c-2.68-9.725-14.693-25.86-24.524-32.982c1.159-2.824,5.972-10.296,8.173-12.884c17.131,8.195,26.908,22.951,26.213,28.779
		C239.113,82.184,234.365,88.77,229.922,93.641z M216.055,103.97c-2.215-7.23-10.399-15.113-18.575-20.609
		c1.839-8.41,3.588-14.145,6.859-20.689c7.828,4.613,25.687,28.542,23.408,33.272C224.363,99.123,220.447,101.846,216.055,103.97z
		 M158.236,89.938c13.313,12.752,30.987,15.991,52.779,9.024c1.731,2.309,2.797,5.52,1.833,6.111
		C192.913,113.239,170.801,106.716,158.236,89.938z M149.841,63.949c9.061,26.954,33.522,23.467,45.935,21.522
		c6.221,4.729,10.847,8.233,13.819,11.589c-22.978,9.349-48.507,0.412-57.465-18.893c-1.814-3.913-2.798-8.358-3.135-12.774
		C149.301,64.738,149.463,64.578,149.841,63.949z M194.05,15.044c-23.485,11.561-36.747,38.912-35.227,61.063
		c-3.539-3.763-5.654-8.94-7.104-15.146c0.982-16.607,11.792-34.083,25.619-41.403C184.629,15.7,192.325,15.011,194.05,15.044z"/>
</g>
<g id="volleybal_sinds_1954">
	<g>
		<path fill="#FFFFFF" d="M37.247,218.972l3.001,9.385c0.532,1.633,0.912,3.115,1.254,4.635h0.114
			c0.342-1.52,0.76-2.964,1.254-4.635l2.926-9.385h4.939l-7.067,18.503h-4.597l-6.877-18.503H37.247z"/>
		<path fill="#FFFFFF" d="M70.115,228.052c0,6.801-4.788,9.841-9.499,9.841c-5.243,0-9.271-3.609-9.271-9.536
			c0-6.08,3.99-9.803,9.575-9.803C66.43,218.554,70.115,222.429,70.115,228.052z M56.171,228.243c0,3.571,1.748,6.269,4.597,6.269
			c2.66,0,4.521-2.621,4.521-6.345c0-2.888-1.292-6.193-4.483-6.193C57.501,221.973,56.171,225.165,56.171,228.243z"/>
		<path fill="#FFFFFF" d="M73.385,210.5h4.711v26.976h-4.711V210.5z"/>
		<path fill="#FFFFFF" d="M82.581,210.5h4.711v26.976h-4.711V210.5z"/>
		<path fill="#FFFFFF" d="M95.082,229.535c0.114,3.343,2.736,4.787,5.699,4.787c2.166,0,3.724-0.304,5.129-0.836l0.684,3.229
			c-1.596,0.646-3.8,1.178-6.459,1.178c-6.003,0-9.537-3.724-9.537-9.385c0-5.129,3.116-9.954,9.043-9.954
			c6.041,0,7.979,4.939,7.979,9.004c0,0.874-0.076,1.559-0.152,1.977H95.082z M103.213,226.267c0.038-1.71-0.722-4.521-3.837-4.521
			c-2.888,0-4.104,2.621-4.293,4.521H103.213z"/>
		<path fill="#FFFFFF" d="M113.626,218.972l3.344,9.916c0.38,1.14,0.76,2.546,1.026,3.609h0.114
			c0.304-1.063,0.646-2.432,0.988-3.647l2.888-9.878H127l-4.635,12.614c-2.545,6.914-4.255,9.992-6.459,11.892
			c-1.824,1.634-3.724,2.242-4.901,2.394l-1.064-3.951c0.798-0.19,1.786-0.607,2.736-1.292c0.874-0.569,1.899-1.672,2.545-2.926
			c0.19-0.342,0.304-0.607,0.304-0.836c0-0.189-0.038-0.455-0.266-0.911l-6.763-16.983H113.626z"/>
		<path fill="#FFFFFF" d="M129.131,210.5h4.673v11.018h0.076c1.14-1.785,3.154-2.963,5.927-2.963c4.521,0,7.751,3.761,7.713,9.385
			c0,6.648-4.217,9.954-8.397,9.954c-2.394,0-4.521-0.912-5.851-3.191h-0.076l-0.228,2.773h-3.99
			c0.076-1.254,0.152-3.306,0.152-5.205V210.5z M133.805,229.838c0,0.38,0.038,0.76,0.114,1.102
			c0.494,1.862,2.127,3.268,4.142,3.268c2.925,0,4.711-2.355,4.711-6.079c0-3.268-1.558-5.927-4.673-5.927
			c-1.899,0-3.609,1.367-4.141,3.419c-0.076,0.342-0.152,0.76-0.152,1.216V229.838z"/>
		<path fill="#FFFFFF" d="M165.152,233.03c0,1.672,0.076,3.306,0.266,4.445h-4.217l-0.304-2.052h-0.114
			c-1.14,1.443-3.078,2.47-5.471,2.47c-3.723,0-5.813-2.697-5.813-5.509c0-4.674,4.142-7.029,10.98-6.991v-0.304
			c0-1.216-0.494-3.229-3.762-3.229c-1.824,0-3.723,0.569-4.977,1.367l-0.912-3.039c1.368-0.836,3.762-1.634,6.687-1.634
			c5.927,0,7.637,3.761,7.637,7.788V233.03z M160.593,228.432c-3.305-0.075-6.459,0.646-6.459,3.458c0,1.823,1.178,2.659,2.66,2.659
			c1.862,0,3.229-1.216,3.647-2.546c0.114-0.342,0.152-0.722,0.152-1.025V228.432z"/>
		<path fill="#FFFFFF" d="M169.524,210.5h4.711v26.976h-4.711V210.5z"/>
		<path fill="#FFFFFF" d="M181.684,218.972l3.001,9.385c0.532,1.633,0.912,3.115,1.254,4.635h0.114
			c0.342-1.52,0.76-2.964,1.254-4.635l2.926-9.385h4.939l-7.067,18.503h-4.597l-6.877-18.503H181.684z"/>
		<path fill="#FFFFFF" d="M200.265,229.535c0.114,3.343,2.736,4.787,5.699,4.787c2.166,0,3.724-0.304,5.129-0.836l0.684,3.229
			c-1.596,0.646-3.799,1.178-6.459,1.178c-6.003,0-9.537-3.724-9.537-9.385c0-5.129,3.116-9.954,9.043-9.954
			c6.041,0,7.978,4.939,7.978,9.004c0,0.874-0.075,1.559-0.151,1.977H200.265z M208.396,226.267c0.038-1.71-0.722-4.521-3.837-4.521
			c-2.888,0-4.104,2.621-4.293,4.521H208.396z"/>
		<path fill="#FFFFFF" d="M215.998,224.937c0-2.508-0.039-4.293-0.152-5.965h4.064l0.152,3.533h0.152
			c0.912-2.622,3.078-3.951,5.053-3.951c0.457,0,0.723,0.038,1.102,0.113v4.408c-0.379-0.076-0.797-0.152-1.367-0.152
			c-2.242,0-3.762,1.443-4.18,3.533c-0.076,0.418-0.151,0.912-0.151,1.444v9.574h-4.673V224.937z"/>
		<path fill="#FFFFFF" d="M231.919,229.535c0.114,3.343,2.735,4.787,5.699,4.787c2.166,0,3.724-0.304,5.13-0.836l0.684,3.229
			c-1.596,0.646-3.8,1.178-6.459,1.178c-6.004,0-9.537-3.724-9.537-9.385c0-5.129,3.115-9.954,9.043-9.954
			c6.041,0,7.979,4.939,7.979,9.004c0,0.874-0.076,1.559-0.152,1.977H231.919z M240.05,226.267c0.038-1.71-0.722-4.521-3.837-4.521
			c-2.889,0-4.104,2.621-4.294,4.521H240.05z"/>
		<path fill="#FFFFFF" d="M247.65,224.481c0-2.128-0.037-3.913-0.152-5.509h4.104l0.229,2.773h0.113
			c0.799-1.444,2.813-3.191,5.89-3.191c3.229,0,6.573,2.09,6.573,7.94v10.98h-4.674v-10.448c0-2.66-0.987-4.674-3.533-4.674
			c-1.861,0-3.153,1.33-3.647,2.736c-0.151,0.418-0.19,0.987-0.19,1.52v10.866h-4.711V224.481z"/>
		<path fill="#FFFFFF" d="M273.794,213.804c0,1.406-1.026,2.508-2.659,2.508c-1.559,0-2.584-1.102-2.584-2.508
			c0-1.443,1.064-2.545,2.621-2.545C272.768,211.259,273.756,212.361,273.794,213.804z M268.816,237.475v-18.503h4.711v18.503
			H268.816z"/>
		<path fill="#FFFFFF" d="M294.73,234.778c0,3.875-0.798,6.648-2.736,8.396c-1.938,1.71-4.597,2.241-7.143,2.241
			c-2.355,0-4.863-0.493-6.459-1.481l1.026-3.533c1.178,0.684,3.153,1.405,5.396,1.405c3.039,0,5.318-1.596,5.318-5.585v-1.596
			h-0.076c-1.063,1.634-2.963,2.735-5.395,2.735c-4.598,0-7.865-3.799-7.865-9.042c0-6.079,3.951-9.765,8.396-9.765
			c2.813,0,4.484,1.367,5.357,2.888h0.076l0.189-2.47h4.066c-0.076,1.254-0.152,2.773-0.152,5.319V234.778z M290.057,226.38
			c0-0.418-0.037-0.873-0.151-1.254c-0.494-1.709-1.823-3.001-3.8-3.001c-2.621,0-4.559,2.279-4.559,6.041
			c0,3.153,1.596,5.699,4.521,5.699c1.747,0,3.268-1.14,3.799-2.812c0.113-0.494,0.189-1.14,0.189-1.672V226.38z"/>
		<path fill="#FFFFFF" d="M304.004,213.804c0,1.406-1.025,2.508-2.66,2.508c-1.557,0-2.583-1.102-2.583-2.508
			c0-1.443,1.063-2.545,2.622-2.545C302.979,211.259,303.966,212.361,304.004,213.804z M299.027,237.475v-18.503h4.711v18.503
			H299.027z"/>
		<path fill="#FFFFFF" d="M308.186,224.481c0-2.128-0.039-3.913-0.152-5.509h4.104l0.228,2.773h0.114
			c0.798-1.444,2.812-3.191,5.889-3.191c3.229,0,6.573,2.09,6.573,7.94v10.98h-4.673v-10.448c0-2.66-0.988-4.674-3.534-4.674
			c-1.861,0-3.153,1.33-3.647,2.736c-0.152,0.418-0.189,0.987-0.189,1.52v10.866h-4.711V224.481z"/>
		<path fill="#FFFFFF" d="M346.106,234.778c0,3.875-0.798,6.648-2.735,8.396c-1.938,1.71-4.598,2.241-7.143,2.241
			c-2.356,0-4.863-0.493-6.459-1.481l1.025-3.533c1.178,0.684,3.153,1.405,5.395,1.405c3.04,0,5.32-1.596,5.32-5.585v-1.596h-0.076
			c-1.064,1.634-2.964,2.735-5.396,2.735c-4.598,0-7.865-3.799-7.865-9.042c0-6.079,3.952-9.765,8.397-9.765
			c2.811,0,4.482,1.367,5.357,2.888h0.075l0.19-2.47h4.064c-0.075,1.254-0.151,2.773-0.151,5.319V234.778z M341.434,226.38
			c0-0.418-0.039-0.873-0.152-1.254c-0.494-1.709-1.824-3.001-3.8-3.001c-2.622,0-4.56,2.279-4.56,6.041
			c0,3.153,1.596,5.699,4.521,5.699c1.748,0,3.268-1.14,3.8-2.812c0.114-0.494,0.19-1.14,0.19-1.672V226.38z"/>
	</g>
</g>
<g id="move4u">
	<g>
		<g>
			<path fill="#004D95" stroke="#FFFFFF" stroke-width="3.6" d="M267.362,206.793v-24.528h-47.376V162.61l37.968-65.016h37.968
				v62.16h12.096v22.512h-12.096v24.528H267.362z M267.362,159.753v-18.647c0-7.056,0.504-14.112,0.84-21.84h-0.672
				c-3.528,7.392-6.553,14.448-10.584,22.008l-9.24,18.144l-0.168,0.336H267.362z"/>
		</g>
	</g>
	<g>
		<g>
			<path fill="#003888" stroke="#003888" stroke-width="7.2" d="M71.013,154.235c-0.432-8.208-0.864-18.145-0.756-26.137h-0.324
				c-1.404,7.992-3.348,16.74-5.076,23.76l-7.56,29.592h-7.884l-7.128-28.836c-1.944-7.344-3.888-16.416-5.184-24.516h-0.324
				c-0.108,8.208-0.54,17.82-0.972,26.46l-1.296,27.757H24.464l4.86-72.793h12.204l7.02,29.484
				c2.268,9.396,4.104,17.064,5.508,25.272h0.216c1.296-8.208,2.916-15.769,5.076-25.272l6.804-29.484h12.42l4.32,72.793H72.417
				L71.013,154.235z"/>
			<path fill="#003888" stroke="#003888" stroke-width="7.2" d="M109.352,183.179c-11.124,0-18.792-9.288-18.792-27.001
				c0-19.116,9.396-27.324,19.224-27.324c11.016,0,18.576,9.612,18.576,27.001c0,21.275-11.016,27.324-18.9,27.324H109.352z
				 M109.784,174.323c5.724,0,7.02-10.368,7.02-18.36c0-7.668-1.296-18.252-7.236-18.252c-6.264,0-7.452,10.584-7.452,18.252
				c0,8.856,1.512,18.36,7.56,18.36H109.784z"/>
			<path fill="#003888" stroke="#003888" stroke-width="7.2" d="M143.803,129.718l5.184,26.244
				c0.756,4.104,1.512,8.856,2.268,13.824h0.216c0.648-4.86,1.404-9.288,2.16-13.824l5.076-26.244h11.448l-13.932,52.597h-10.476
				l-14.148-52.597H143.803z"/>
			<path fill="#003888" stroke="#003888" stroke-width="7.2" d="M184.195,159.094c0.108,11.772,5.508,15.013,11.665,15.013
				c3.888,0,7.128-0.864,9.396-1.836l1.728,8.208c-3.348,1.512-8.424,2.484-13.176,2.484c-13.608,0-20.844-9.828-20.844-26.137
				c0-17.388,8.316-27.973,19.548-27.973c11.016,0,16.632,10.044,16.632,24.085c0,3.023-0.108,4.752-0.324,6.155H184.195z
				 M198.452,150.886c0.108-8.424-2.7-13.392-6.804-13.392c-4.968,0-7.236,7.236-7.452,13.392H198.452z"/>
		</g>
		<g>
			<path fill="#FFFFFF" d="M71.013,154.859c-0.432-8.208-0.864-18.145-0.756-26.137h-0.324c-1.404,7.992-3.348,16.74-5.076,23.76
				l-7.56,29.592h-7.884l-7.128-28.836c-1.944-7.344-3.888-16.417-5.184-24.517h-0.324c-0.108,8.208-0.54,17.82-0.972,26.46
				l-1.296,27.757H24.464l4.86-72.793h12.204l7.02,29.484c2.268,9.396,4.104,17.064,5.508,25.272h0.216
				c1.296-8.208,2.916-15.769,5.076-25.272l6.804-29.484h12.42l4.32,72.793H72.417L71.013,154.859z"/>
			<path fill="#FFFFFF" d="M109.352,183.803c-11.124,0-18.792-9.288-18.792-27.001c0-19.116,9.396-27.324,19.224-27.324
				c11.016,0,18.576,9.612,18.576,27.001c0,21.276-11.016,27.324-18.9,27.324H109.352z M109.784,174.947
				c5.724,0,7.02-10.368,7.02-18.36c0-7.668-1.296-18.252-7.236-18.252c-6.264,0-7.452,10.584-7.452,18.252
				c0,8.856,1.512,18.36,7.56,18.36H109.784z"/>
			<path fill="#FFFFFF" d="M143.803,130.342l5.184,26.244c0.756,4.104,1.512,8.856,2.268,13.824h0.216
				c0.648-4.86,1.404-9.288,2.16-13.824l5.076-26.244h11.448l-13.932,52.597h-10.476l-14.148-52.597H143.803z"/>
			<path fill="#FFFFFF" d="M184.195,159.718c0.108,11.772,5.508,15.013,11.665,15.013c3.888,0,7.128-0.864,9.396-1.836l1.728,8.208
				c-3.348,1.512-8.424,2.484-13.176,2.484c-13.608,0-20.844-9.828-20.844-26.137c0-17.388,8.316-27.973,19.548-27.973
				c11.016,0,16.632,10.044,16.632,24.084c0,3.024-0.108,4.753-0.324,6.156H184.195z M198.452,151.51
				c0.108-8.424-2.7-13.392-6.804-13.392c-4.968,0-7.236,7.236-7.452,13.392H198.452z"/>
		</g>
	</g>
	<g>
		<g>
			<path fill="#003888" stroke="#003888" stroke-width="7.2" d="M357.293,166.979c0,5.724,0.216,10.908,0.432,15.336h-10.044
				l-0.648-5.508h-0.216c-2.052,3.132-6.264,6.372-11.771,6.372c-9.612,0-13.501-7.236-13.501-20.952v-32.509h11.557v31.104
				c0,7.56,1.296,12.744,6.048,12.744c3.564,0,5.4-3.024,5.94-5.185c0.432-1.188,0.647-2.808,0.647-4.536v-34.128h11.557V166.979z"
				/>
		</g>
		<g>
			<path fill="#FFFFFF" d="M357.293,167.603c0,5.724,0.216,10.908,0.432,15.336h-10.044l-0.648-5.508h-0.216
				c-2.052,3.132-6.264,6.372-11.771,6.372c-9.612,0-13.501-7.236-13.501-20.952v-32.509h11.557v31.104
				c0,7.56,1.296,12.744,6.048,12.744c3.564,0,5.4-3.024,5.94-5.185c0.432-1.188,0.647-2.808,0.647-4.536v-34.128h11.557V167.603z"
				/>
		</g>
	</g>
</g>
</svg>
